Issue ID,URL,Title,State,Description,Author,Author Username,Assignee,Assignee Username,Confidential,Locked,Due Date,Created At (UTC),Updated At (UTC),Closed At (UTC),Milestone,Weight,Labels,Time Estimate,Time Spent
1,https://gitlab.com/muishkin/mwnci---deep-spreadsheets/issues/1,Sidebar requires icon,Closed,"The Mwnci sidebar doesn't have a distinguishing icon. 

![image](/uploads/00a0d3335ae569c85921273cc174dac6/image.png)",Rob Barry,muishkin,Rob Barry,muishkin,No,No,,2019-08-19 15:52:44,2019-08-24 11:22:21,2019-08-24 11:22:20,,,,0,0
2,https://gitlab.com/muishkin/mwnci---deep-spreadsheets/issues/2,Sidebar panels cannot be displayed at the same time,Closed,"It is not possible to display both sidebar panels at the same time.

![image](/uploads/22885766475b203c1cc9bf2d0199eb61/image.png)",Rob Barry,muishkin,Rob Barry,muishkin,No,No,,2019-08-19 15:53:50,2019-08-22 19:11:26,2019-08-22 19:11:26,,,,0,0
3,https://gitlab.com/muishkin/mwnci---deep-spreadsheets/issues/3,Value Search Panel UX Improvements,Closed,"Improve the UX on the value search panel.

* Tidy up so it looks usable.
* Allow horizontal (and vertical) scroll for small screen resolutions + to avoid resizing components on side-bar width change.
* Include the name of the entity they are looking at properties for.
* Avoid unnecessary search request reloads. When an property is selected, the whole search request is performed unnecessarily with jerky UI unpleasantness. 

![image](/uploads/7408c8dcb5bce43c56658d59c48afb97/image.png)",Rob Barry,muishkin,Rob Barry,muishkin,No,No,,2019-08-19 15:56:12,2019-08-24 17:24:49,2019-08-24 17:24:49,,,,0,0
4,https://gitlab.com/muishkin/mwnci---deep-spreadsheets/issues/4,Subject Entity Search Panel Improvements,Closed,"* Remove rubbish cell ref. ![image](/uploads/787a64abd6047bd922c30b1114cda716/image.png)
* Add entity description to enable disambiguation of multiple entities with the same name/. ![image](/uploads/c83eead5114184adbd392a35bac4d2c5/image.png)
* Avoid unnecessary search request reloads. When an property is selected, the whole search request is performed unnecessarily with jerky UI unpleasantness. ",Rob Barry,muishkin,Rob Barry,muishkin,No,No,,2019-08-19 15:58:31,2019-08-24 17:24:47,2019-08-24 17:24:47,,,,0,0
5,https://gitlab.com/muishkin/mwnci---deep-spreadsheets/issues/5,Increase Range of Sparql Providers,Open,"Really need to find another SPARQL data-source which is at least as usable as wikidata with Mwnci.

![image](/uploads/4a62df3e0b2add3d2e68e1d0b726e935/image.png)",Rob Barry,muishkin,Rob Barry,muishkin,No,No,,2019-08-19 15:59:36,2019-08-28 14:35:34,,,,Doing,0,0
6,https://gitlab.com/muishkin/mwnci---deep-spreadsheets/issues/6,Wikidata Provider Improvements,Closed,"* Improve range of available filters ![image](/uploads/6183e3922dab45fb533434e5c45fd45a/image.png)
* Use mediawiki API when searching for predicates (as per subject entity search) for speed and search ordering improvements.",Rob Barry,muishkin,Rob Barry,muishkin,No,No,,2019-08-19 16:00:45,2019-08-27 14:39:04,2019-08-27 14:38:02,,,,0,0
7,https://gitlab.com/muishkin/mwnci---deep-spreadsheets/issues/7,Link OutputLanguage to UI Language,Closed,"`MwnciHelpers.getOutputLanguage` currently only returns `en` as the selected language. Amend this function so that it looks up the user's current language and returns that. 

Will need to add an override for this functionality at some point but that will have to wait until a settings page has been created for Mwnci.",Rob Barry,muishkin,Rob Barry,muishkin,No,No,,2019-08-19 16:02:40,2019-08-24 11:06:00,2019-08-24 11:05:59,,,,0,0
8,https://gitlab.com/muishkin/mwnci---deep-spreadsheets/issues/8,Enable `?subject pr:edicate ?value` Style Filters,Closed,"Allow the user to enter custom SPARQL filters in to the filters drop-down in the `?subject pr:edicate ?value` style. See code placeholder in `SparqlService.getSubjectPredicateValuePattern`

![image](/uploads/0b3ecdbd9750ccdc9cfb803326460934/image.png)",Rob Barry,muishkin,Rob Barry,muishkin,No,No,,2019-08-19 16:04:41,2019-08-28 14:35:31,2019-08-28 14:35:31,,,,0,0
9,https://gitlab.com/muishkin/mwnci---deep-spreadsheets/issues/9,Improve Date/Time Support,Closed,"Dates, times and datetimes are currently serialised as ISO formatted strings in CALC. Improvements should be made so that these strings are provided in the appropriate way that calc accepts them. If need be, cell formatting should be applied. 

See `SparqlService.GetEntityProperty` for suitable code location.",Rob Barry,muishkin,Rob Barry,muishkin,No,No,,2019-08-19 16:07:00,2019-08-27 16:23:46,2019-08-27 16:23:45,,,,0,0
10,https://gitlab.com/muishkin/mwnci---deep-spreadsheets/issues/10,Periodically Update/Synchronise Values from SPARQL End-points,Open,"Periodically (say every 6 hours?) update all of the values from SPARQL end-points. This can be done by adding a six-hourly trigger on to the `Observable`s held by the `MwnciVolatileResult` class. 

[RxJava Observable.interval](http://reactivex.io/documentation/operators/interval.html) seems to be the right solution.",Rob Barry,muishkin,Rob Barry,muishkin,No,No,,2019-08-19 16:28:49,2019-08-19 16:29:21,,,,,0,0
11,https://gitlab.com/muishkin/mwnci---deep-spreadsheets/issues/11,Entity Cell list not updated when Text contents of cell is changed,Closed,"If we update the contents of a particular cell, e.g. by directly inputting text or by using the search panels such that an entity is now present in the cell, the cell doesn't automatically get added to the previously selected entity cells. 

This makes adding new entities and then finding their values unnecessarily difficult.",Rob Barry,muishkin,Rob Barry,muishkin,No,No,,2019-08-20 08:33:47,2019-08-24 11:22:45,2019-08-22 17:32:47,,,,0,0
12,https://gitlab.com/muishkin/mwnci---deep-spreadsheets/issues/12,Avoid fetching SPARQL results when Panel hidden,Closed,When the panel is hidden we should avoid fetching sparql results. We don't want to annoy the providers of the SPARQL data sources too much.,Rob Barry,muishkin,Rob Barry,muishkin,No,No,,2019-08-24 11:34:03,2019-08-25 13:42:51,2019-08-25 13:42:51,,,,0,0
13,https://gitlab.com/muishkin/mwnci---deep-spreadsheets/issues/13,Infer provider from entityURI,Closed,"When an entityURI has been entered, we need to be able to infer which SPARQL provider should be used to look up related properties (and the entity label/description itself).

i.e. `http://www.wikidata.org/entity...` -> `WikiData`

This will make it easier for users to continue to use a non-default provider.",Rob Barry,muishkin,Rob Barry,muishkin,No,No,,2019-08-24 11:36:33,2019-08-24 17:24:43,2019-08-24 17:24:43,,,,0,0
14,https://gitlab.com/muishkin/mwnci---deep-spreadsheets/issues/14,Allow optional return of one-to-many relations,Closed,Allow users to view values where one-to-many relationships exist. Via an optional parameter in the `sparqlValue` function.,Rob Barry,muishkin,Rob Barry,muishkin,No,No,,2019-08-26 12:22:51,2019-08-27 14:39:12,2019-08-27 14:39:12,,,,0,0
